{
    "KPlugin": {
        "Authors": [
            {
                "Email": "drf@kdemod.ath.cx",
                "Name": "Dario Freddi",
                "Name[ar]": "Dario Freddi",
                "Name[az]": "Dario Freddi",
                "Name[be]": "Dario Freddi",
                "Name[bg]": "Dario Freddi",
                "Name[ca@valencia]": "Dario Freddi",
                "Name[ca]": "Dario Freddi",
                "Name[cs]": "Dario Freddi",
                "Name[da]": "Dario Freddi",
                "Name[de]": "Dario Freddi",
                "Name[en_GB]": "Dario Freddi",
                "Name[eo]": "Dario Freddi",
                "Name[es]": "Dario Freddi",
                "Name[et]": "Dario Freddi",
                "Name[eu]": "Dario Freddi",
                "Name[fi]": "Dario Freddi",
                "Name[fr]": "Dario Freddi",
                "Name[gl]": "Dario Freddi",
                "Name[he]": "דריו פרדי",
                "Name[hi]": "डारियो फ्रेडी",
                "Name[hu]": "Dario Freddi",
                "Name[ia]": "Dario Freddi",
                "Name[id]": "Dario Freddi",
                "Name[is]": "Dario Freddi",
                "Name[it]": "Dario Freddi",
                "Name[ja]": "Dario Freddi",
                "Name[ka]": "Dario Freddi",
                "Name[ko]": "Dario Freddi",
                "Name[lt]": "Dario Freddi",
                "Name[lv]": "Dario Freddi",
                "Name[nl]": "Dario Freddi",
                "Name[nn]": "Dario Freddi",
                "Name[pl]": "Dario Freddi",
                "Name[pt]": "Dario Freddi",
                "Name[pt_BR]": "Dario Freddi",
                "Name[ro]": "Dario Freddi",
                "Name[ru]": "Dario Freddi",
                "Name[sa]": "डारियो फ्रेडी",
                "Name[sk]": "Dario Freddi",
                "Name[sl]": "Dario Freddi",
                "Name[sv]": "Dario Freddi",
                "Name[ta]": "டாரியோ ஃபிரெடி",
                "Name[tr]": "Dario Freddi",
                "Name[uk]": "Dario Freddi",
                "Name[vi]": "Dario Freddi",
                "Name[x-test]": "xxDario Freddixx",
                "Name[zh_CN]": "Dario Freddi",
                "Name[zh_TW]": "Dario Freddi"
            }
        ],
        "Description": "Basic Power Management Operations",
        "Description[ar]": "عمليات إدارة الطاقة الأساسية",
        "Description[az]": "Əsas enerjiyə nəzarət əməliyyatları",
        "Description[be]": "Асноўныя аперацыі кіравання сілкаваннем",
        "Description[bg]": "Основни операции на управление на захранването",
        "Description[ca@valencia]": "Operacions bàsiques en la gestió de l'energia",
        "Description[ca]": "Operacions bàsiques en la gestió d'energia",
        "Description[cs]": "Základní úkony týkající se správy napájení",
        "Description[da]": "Grundlæggende strømstyringsoperationer",
        "Description[de]": "Grundlegende Operationen zur Energieverwaltung",
        "Description[en_GB]": "Basic Power Management Operations",
        "Description[eo]": "Bazaj Energiadministradaj Operacioj",
        "Description[es]": "Operaciones básicas de gestión de energía",
        "Description[et]": "Peamised toitehalduse toimingud",
        "Description[eu]": "Energia-kudeaketako oinarrizko eragiketak",
        "Description[fi]": "Yksinkertaiset virranhallintatoiminnot",
        "Description[fr]": "Opérations basiques de gestion de l'énergie",
        "Description[gl]": "Operacións básicas de xestión da enerxía.",
        "Description[he]": "פעולות בסיסיות לניהול צריכת חשמל",
        "Description[hi]": "आधारभूत बिज़ली प्रबंधन ऑपरेशन",
        "Description[hu]": "Energiakezelési funkciók",
        "Description[ia]": "Operationes basic de gestion de energia",
        "Description[id]": "Operasi Dasar Pengelolaan Daya",
        "Description[is]": "Grunnaðgerðir orkustýringar",
        "Description[it]": "Operazioni di base per la gestione energetica",
        "Description[ja]": "基本的な電源管理操作",
        "Description[ka]": "კვების მართვის ძირითადი ოპერაციები",
        "Description[ko]": "기본 전원 관리 작업",
        "Description[lt]": "Pagrindinės maitinimo valdymo operacijos",
        "Description[lv]": "Pamata energokontroles darbības",
        "Description[nl]": "Basis energiebeheeroperaties",
        "Description[nn]": "Grunnleggjande straumstyringsfunksjonar",
        "Description[pa]": "ਬੇਸਿਕ ਪਾਵਰ ਮੈਨਿਜਮੈਂਟ ਓਪਰੇਸ਼ਨ",
        "Description[pl]": "Umożliwia zarządzanie energią",
        "Description[pt]": "Operações Básicas de Gestão da Energia",
        "Description[pt_BR]": "Operações básicas de gerenciamento de energia",
        "Description[ro]": "Operații de bază pentru gestiunea energiei",
        "Description[ru]": "Управление питанием",
        "Description[sa]": "मूलभूत विद्युत प्रबन्धन संचालन",
        "Description[sk]": "Základné operácie správy napájania",
        "Description[sl]": "Osnovna dejanja upravljanja z energijo",
        "Description[sv]": "Grundläggande strömsparfunktioner",
        "Description[ta]": "அடிப்படை ஆற்றல் மேலாண்மை செயல்கள்",
        "Description[tr]": "Temel Güç Yönetimi İşlemleri",
        "Description[uk]": "Керування базовими операціями з керування живленням",
        "Description[vi]": "Các thao tác cơ bản để quản lí nguồn điện",
        "Description[x-test]": "xxBasic Power Management Operationsxx",
        "Description[zh_CN]": "基本电源管理操作",
        "Description[zh_TW]": "基本的電源管理操作",
        "EnabledByDefault": true,
        "Icon": "preferences-system-power-management",
        "License": "GPL",
        "Name": "Power",
        "Name[ar]": "الطاقة",
        "Name[az]": "El. qidalanması",
        "Name[be]": "Сілкаванне",
        "Name[bg]": "Захранване",
        "Name[ca@valencia]": "Energia",
        "Name[ca]": "Energia",
        "Name[cs]": "Energie",
        "Name[da]": "Power",
        "Name[de]": "Energie",
        "Name[el]": "Ενέργεια",
        "Name[en_GB]": "Power",
        "Name[eo]": "Energio",
        "Name[es]": "Energía",
        "Name[et]": "Voolutarve",
        "Name[eu]": "Energia",
        "Name[fi]": "Virta",
        "Name[fr]": "Énergie",
        "Name[gl]": "Enerxía",
        "Name[he]": "חשמל",
        "Name[hi]": "बिजली",
        "Name[hsb]": "Milina",
        "Name[hu]": "Teljesítmény",
        "Name[ia]": "Potentia",
        "Name[id]": "Daya",
        "Name[is]": "Orka",
        "Name[it]": "Alimentazione",
        "Name[ja]": "電源",
        "Name[ka]": "კვება",
        "Name[ko]": "전원",
        "Name[lt]": "Maitinimas",
        "Name[lv]": "Enerģija",
        "Name[ml]": "ഊർജ്ജം",
        "Name[nl]": "Energie",
        "Name[nn]": "På / av",
        "Name[pa]": "ਪਾਵਰ",
        "Name[pl]": "Zasilanie",
        "Name[pt]": "Energia",
        "Name[pt_BR]": "Energia",
        "Name[ro]": "Alimentare",
        "Name[ru]": "Электропитание",
        "Name[sa]": "विद्युत्",
        "Name[sk]": "Napájanie",
        "Name[sl]": "Energija",
        "Name[sr@ijekavian]": "напајање",
        "Name[sr@ijekavianlatin]": "napajanje",
        "Name[sr@latin]": "napajanje",
        "Name[sr]": "напајање",
        "Name[sv]": "Effekt",
        "Name[ta]": "ஆற்றல்",
        "Name[tg]": "Барқ",
        "Name[tok]": "wawa",
        "Name[tr]": "Güç",
        "Name[uk]": "Живлення",
        "Name[vi]": "Nguồn điện",
        "Name[x-test]": "xxPowerxx",
        "Name[zh_CN]": "电源",
        "Name[zh_TW]": "電源"
    },
    "X-Plasma-ShowDesciptionInOverview": true
}
