{
    "KPlugin": {
        "Description": "XML Data from the British Broadcasting Corporation",
        "Description[ar]": "بيانات XML من هيئة الإذاعة البريطانية ",
        "Description[az]": "Britaniya Yayım Korporasiyasının XML formatında məlumatları",
        "Description[be]": "XML-даныя ад Брытанскай вяшчальнай кампаніі",
        "Description[bg]": "XML данни от BBC",
        "Description[ca@valencia]": "Dades XML de la British Broadcasting Corporation",
        "Description[ca]": "Dades XML de la British Broadcasting Corporation",
        "Description[cs]": "Data XML z British Broadcasting Corporation",
        "Description[da]": "XML-data fra British Broadcasting Corporation",
        "Description[de]": "XML-Daten von der BBC",
        "Description[en_GB]": "XML Data from the British Broadcasting Corporation",
        "Description[eo]": "XML-Datumoj de la Brita Dissendado-Entrepreno (BBC)",
        "Description[es]": "Datos XML de la British Broadcasting Corporation",
        "Description[et]": "XML-andmed Briti ringhäälingukorporatsioonilt",
        "Description[eu]": "«British Broadcasting Corporation»eko XML datuak",
        "Description[fi]": "XML-data BBC:ltä",
        "Description[fr]": "Données « XML » de la British Broadcasting Corporation",
        "Description[gl]": "Datos XML da British Broadcasting Corporation.",
        "Description[he]": "נתוני XML מתאגיד השידור הבריטי (BBC)",
        "Description[hi]": "ब्रिटिश ब्रॉडकास्टिंग कॉर्पोरेशन से एक्सएमएल डेटा",
        "Description[hu]": "XML-adatok a British Broadcasting Corporationtől",
        "Description[ia]": "Datos XML ex le British Broadcasting Corporation",
        "Description[id]": "Data XML dari British Broadcasting Corporation",
        "Description[is]": "XML-veðurgögn frá British Broadcasting Corporation",
        "Description[it]": "Dati XML dalla British Broadcasting Corporation",
        "Description[ja]": "BBC (英国放送協会) の XML データ",
        "Description[ka]": "XML მონაცემები BBC-სგან",
        "Description[ko]": "BBC의 XML 데이터",
        "Description[lt]": "XML duomenys iš BBC (British Broadcasting Corporation)",
        "Description[lv]": "XML dati no „British Broadcasting Corporation“",
        "Description[nl]": "XML-gegevens van de British Broadcasting Corporation",
        "Description[nn]": "XML-data frå British Broadcasting Corporation",
        "Description[pl]": "Dane XML z British Broadcasting Corporation",
        "Description[pt]": "Dados em XML da BBC (British Broadcasting Corporation)",
        "Description[pt_BR]": "Dados em XML da BBC (British Broadcasting Corporation)",
        "Description[ro]": "Date XML de la BBC",
        "Description[ru]": "Данные в формате XML от Британской вещательной корпорации",
        "Description[sa]": "ब्रिटिशप्रसारणनिगमस्य XML दत्तांशः",
        "Description[sk]": "XML údaje od British Broadcasting Corporation",
        "Description[sl]": "XML podatki od British Broadcasting Corporation",
        "Description[sv]": "XML-data från British Broadcasting Corporation",
        "Description[tr]": "British Broadcasting Corporation'dan XML verileri",
        "Description[uk]": "Дані XML від BBC",
        "Description[vi]": "Dữ liệu XML từ Hiệp hội Phát thanh truyền hình Anh quốc (BBC)",
        "Description[x-test]": "xxXML Data from the British Broadcasting Corporationxx",
        "Description[zh_CN]": "BBC 提供的 XML 数据",
        "Description[zh_TW]": "來自英國廣播公司 (BBC) 的 XML 資料",
        "Icon": "noneyet",
        "Name": "BBC Weather",
        "Name[ar]": "الطقس بي بي سي",
        "Name[ast]": "BBC Weather",
        "Name[az]": "BBC Hava Məlumatı",
        "Name[be]": "Надвор'е BBC",
        "Name[bg]": "Прогноза за времето на BBC",
        "Name[ca@valencia]": "BBC Weather",
        "Name[ca]": "BBC Weather",
        "Name[cs]": "BBC Weather",
        "Name[da]": "BBC Weather",
        "Name[de]": "BBC-Wetterdienst",
        "Name[en_GB]": "BBC Weather",
        "Name[eo]": "BBC Vetero",
        "Name[es]": "BBC Weather",
        "Name[et]": "BBC ilmateade",
        "Name[eu]": "BBC Weather",
        "Name[fi]": "BBC Weather",
        "Name[fr]": "Météo de la BBC",
        "Name[gl]": "BBC Weather",
        "Name[he]": "מזג אוויר לפי ה־BBC",
        "Name[hi]": "बीबीसी मौसम",
        "Name[hu]": "BBC Weather",
        "Name[ia]": "BBC Weather",
        "Name[id]": "BBC Weather",
        "Name[is]": "Veðurþjónusta BBC",
        "Name[it]": "BBC Weather",
        "Name[ja]": "BBC Weather",
        "Name[ka]": "BBC ამინდი",
        "Name[ko]": "BBC 날씨",
        "Name[lt]": "BBC orai",
        "Name[lv]": "BBC laikapstākļi",
        "Name[ml]": "ബിബിസി കാലാവസ്ഥ",
        "Name[nl]": "BBC Weather",
        "Name[nn]": "BBC Weather",
        "Name[pa]": "BBC ਮੌਸਮ",
        "Name[pl]": "Pogoda BBC",
        "Name[pt]": "Meteorologia da BBC",
        "Name[pt_BR]": "BBC Weather",
        "Name[ro]": "Vremea BBC",
        "Name[ru]": "Погода от Би-би-си",
        "Name[sa]": "BBC मौसमः",
        "Name[sk]": "BBC Weather",
        "Name[sl]": "BBC Vreme",
        "Name[sv]": "BBC Weather",
        "Name[ta]": "BBC வானிலை",
        "Name[tg]": "Обу ҳавои BBC",
        "Name[tok]": "ilo kon tan kulupu BBC",
        "Name[tr]": "BBC Hava Durumu",
        "Name[uk]": "Погода BBC",
        "Name[vi]": "Ban Thời tiết BBC",
        "Name[x-test]": "xxBBC Weatherxx",
        "Name[zh_CN]": "BBC 天气",
        "Name[zh_TW]": "BBC 天氣"
    },
    "X-KDE-ParentApp": "weatherengine"
}
